00000001
10000010
10000011
10000100
10000001
10000010
10000011
10000100
10000001
10000010
10000011
10000100
10000001
10000010
10000011
10000100
10000001
10000010
10000011
10000100
10000001
10000010
10000011
10000100
10000001
10000010
10000011
10000100
10000001
10000010
10000011
10000100
10000001
10000010
10000011
10000100
00000000
00000000
00000000
00000000
00000000
00000000
00000000
00000000
00000000
00000000
00000000
10000100
10000001
10000010
10000011
10000100
10000001
10000010
10000011
10000100
10000001
10000010
10000011
10000100
10000001
10000010
10000011
10000100
