10000001
10000010
10000011
10000100
10000001
10000010
10000011
10000100
10000001
10000010
10000011
10000100
10000001
10000010
10000011
10000100
10000001
10000010
10000011
10000100
10000001
10000010
10000011
10000100
10000001
10000010
10000011
10000100
10000001
10000010
10000011
10000100
10000001
10000010
10000011
10000100
10000001
10000010
10000011
10000100
10000001
10000010
10000011
10000100
10000001
10000010
10000011
10000100
10000001
10000010
10000011
10000100
10000001
10000010
10000011
10000100
10000001
10000010
10000011
10000100
10000001
10000010
10000011
10000100
